Assignment: Electricity Market Prices
…
MCP and SMP

Firstly, MCP and SMP were analyzed, and daily price changes were examined.

df %>%
  mutate(daily = format(as.POSIXct(Date), "%d"))

## # A tibble: 720 x 7
##    Date                  MCP   SMP `Positive Imbal~ `Negative Imbal~
##    <dttm>              <dbl> <dbl>            <dbl>            <dbl>
##  1 2020-09-01 00:00:00  302.  332.             293.             342.
##  2 2020-09-01 01:00:00  300.  325.             291.             335.
##  3 2020-09-01 02:00:00  293.  318.             284.             327.
##  4 2020-09-01 03:00:00  290   320              281.             330.
##  5 2020-09-01 04:00:00  290   330              281.             340.
##  6 2020-09-01 05:00:00  290   339              281.             349.
##  7 2020-09-01 06:00:00  292.  342.             283.             352.
##  8 2020-09-01 07:00:00  295.  345              287.             355.
##  9 2020-09-01 08:00:00  307.  339.             298.             349.
## 10 2020-09-01 09:00:00  315.  346.             305.             356.
## # ... with 710 more rows, and 2 more variables: `SMP Direction` <chr>,
## #   daily <chr>
…
